1.007046477867096934e-04 inf
1.007046477867096934e-04 inf
2.014092955734193867e-04 inf
2.014092955734193867e-04 inf
2.014092955734193867e-04 inf
2.014092955734193867e-04 inf
2.014092955734193867e-04 inf
2.014092955734193867e-04 inf
2.014092955734193867e-04 inf
2.014092955734193867e-04 inf
3.021139433601291208e-04 inf
4.028195134434784416e-04 inf
5.035241612301880401e-04 inf
5.035241612301880401e-04 inf
6.042297313135374694e-04 inf
8.056390268869568832e-04 inf
8.056390268869568832e-04 inf
8.056390268869568832e-04 inf
8.056390268869568832e-04 inf
9.063436746736665359e-04 inf
1.007049244757015748e-03 inf
1.510572483690564337e-03 inf
1.611277131477274098e-03 inf
1.711982701560623311e-03 inf
1.812687349347333072e-03 inf
2.618324531641010727e-03 inf
2.920441241891058581e-03 inf
3.524669128611317148e-03 inf
3.927487719758156193e-03 inf
4.229601663118284609e-03 inf
4.733129513535032189e-03 inf
6.142994582548967110e-03 inf
6.948631764842644332e-03 inf
7.754276325509438898e-03 inf
8.660618155589825881e-03 inf
1.017118787239047056e-02 inf
1.097683243305726600e-02 inf
1.248740214985791068e-02 inf
1.359515327551171632e-02 inf
1.470291454642856134e-02 inf
1.641489355880262554e-02 inf
1.752264468445643292e-02 inf
1.943605051604006817e-02 inf
2.165155276734768292e-02 inf
2.437057825758884300e-02 inf
2.749242233897684559e-02 inf
2.960723931072718057e-02 inf
3.252767409654176711e-02 inf
3.534740423456963349e-02 inf
3.806645462682006764e-02 inf
4.128900335599478000e-02 inf
4.420943814180935960e-02 inf
4.712989967422649001e-02 inf
4.984892516446765703e-02 inf
5.347429248478920150e-02 inf
5.760322085820653026e-02 2.035287224527390936e+04
6.273915789532871767e-02 1.017648272252120478e+04
6.777439028466421267e-02 1.017648272252120478e+04
7.311178549908173285e-02 1.017648272252120478e+04
7.774419929727038880e-02 1.017648272252120478e+04
8.288013633439257621e-02 1.017648272252120478e+04
8.831823711889344453e-02 1.017648272252120478e+04
9.345417415601564581e-02 1.017648272252120478e+04
9.798588330641756772e-02 1.017648272252120478e+04
1.050352086514872441e-01 1.017648272252120478e+04
1.095669593052379515e-01 1.017648272252120478e+04
1.139979638078531948e-01 6.784332170607196531e+03
1.197381287316956477e-01 6.784332170607196531e+03
1.250755239461131541e-01 5.088241361260602389e+03
1.320241446433961241e-01 4.070596817019707032e+03
1.390734699884658143e-01 4.070596817019707032e+03
1.454179209037168019e-01 3.392160907507067805e+03
1.519637230098529468e-01 3.392160907507067805e+03
1.600200948327896999e-01 2.907568394194961456e+03
1.675730125890409206e-01 2.544120680630301194e+03
1.736152914562435201e-01 1.850271896664475662e+03
1.811681400402467279e-01 1.696083042651799133e+03
1.876132965255810914e-01 1.453784197097480728e+03
1.960724869396647252e-01 1.453784197097480728e+03
2.020140611590806046e-01 1.197234873935380392e+03
2.086606287845816365e-01 1.071209482151229395e+03
2.162134773685848443e-01 9.691898874090137497e+02
2.244712584870950656e-01 9.691898874090137497e+02
2.306142420020843575e-01 8.849127743634244325e+02
2.359516372165018638e-01 8.480411977132457650e+02
2.435044858005050716e-01 7.828074662333067408e+02
2.519637149508701657e-01 7.018272812247494130e+02
2.594158588870866811e-01 5.500812364309181248e+02
2.667673318391896586e-01 4.964146784387361890e+02
2.763343171878168691e-01 4.424564752753175298e+02
2.848942122496872509e-01 3.509139730763430407e+02
2.926485056375218718e-01 3.131231629695813012e+02
3.016112603325515895e-01 2.866620028206429538e+02
3.103725646899953006e-01 2.544126068794672904e+02
3.178247427510312306e-01 2.120104308978820029e+02
3.255790006306079065e-01 1.833604424022203148e+02
3.322255378201804943e-01 1.654715841220419463e+02
3.425981640402710471e-01 1.507629729233014473e+02
3.501510126242742271e-01 1.433310152770157799e+02
3.580060111210418006e-01 1.304679531673806991e+02
3.661631249446081759e-01 1.204319407258759469e+02
3.750251339498386627e-01 1.065602354451040839e+02
3.839878886448683248e-01 9.880098102916892344e+01
3.917421820327030013e-01 8.887772232028829933e+01
4.011077142768669779e-01 8.173896887321573956e+01
4.097683536450978936e-01 7.321222771886847625e+01
4.194359998326220307e-01 6.651308737130200655e+01
4.288015749633834472e-01 6.130422186347452396e+01
4.365558683512181237e-01 5.560928495792336435e+01
4.435044890485011493e-01 5.192092422822856435e+01
4.527693590703296134e-01 4.689631044040906716e+01
4.628398699636213642e-01 4.257948884347332807e+01
4.705941278431979846e-01 3.854735157393021439e+01
4.788519467756972570e-01 3.533506704091389850e+01
4.887210022587947789e-01 3.195134123095164824e+01
4.985901029342207358e-01 2.936941012867171708e+01
5.077542678471163029e-01 2.713733133381847651e+01
5.151057071355460426e-01 2.482073613988403693e+01
5.241691669395086572e-01 2.241519816469078208e+01
5.352467289221296554e-01 2.043473582971466129e+01
5.454178983485873378e-01 1.845240514735483117e+01
5.554884092418791441e-01 1.717552766860113778e+01
5.653574873210891472e-01 1.570447630738136446e+01
5.742195166167063380e-01 1.453785863787605415e+01
5.829808610938701507e-01 1.343432297768585393e+01
5.927492342947209281e-01 1.244831819316598676e+01
6.024169026172123687e-01 1.152491569712236874e+01
6.127895050882187222e-01 1.064487549963742907e+01
6.216515546743154319e-01 9.928292437837681561e+00
6.308156986050104109e-01 9.201175595182270683e+00
6.389727937521125778e-01 8.427743848469898325e+00
6.462235449939811582e-01 7.831089706865634881e+00
6.551862996890107649e-01 7.308078885781610801e+00
6.637462143495500566e-01 6.779813654072720297e+00
6.719033094966522235e-01 6.400314852445292857e+00
6.789526509818021305e-01 6.055638742393599117e+00
6.848942524088442729e-01 5.710718221585807441e+00
6.911379548671199302e-01 5.466827898790618256e+00
6.969788378119585737e-01 5.213371109957540384e+00
7.036253597836714668e-01 5.006888378387363225e+00
7.113796531715061988e-01 4.759822144751794326e+00
7.186304044133747793e-01 4.560385394801095948e+00
7.239677629664168501e-01 4.354514454430222337e+00
7.295065376169451721e-01 4.179260797641862979e+00
7.341389620214723299e-01 4.026310686896009905e+00
7.395770316783547571e-01 3.882678386520909353e+00
7.451157999881153904e-01 3.735180869123982283e+00
7.510573946132277356e-01 3.602300908973616878e+00
7.558912287744733449e-01 3.492278740469175524e+00
7.605236584821879475e-01 3.371376526840265342e+00
7.660624331327162695e-01 3.265361741652738292e+00
7.713997916857584514e-01 3.158932195707337520e+00
7.766364483578933608e-01 3.060141353936205011e+00
7.828801543900543169e-01 2.972542741668000144e+00
7.884189258701970182e-01 2.885313320008742188e+00
7.950654516463683263e-01 2.798432581665612595e+00
8.019133892544189068e-01 2.717356475878379474e+00
8.068479311185460245e-01 2.646684007087602097e+00
8.139979805515611400e-01 2.559803813686044816e+00
8.192346379730596206e-01 2.471223898892325188e+00
8.246727045171997617e-01 2.399551997387623370e+00
8.302114759973424629e-01 2.326588940626061142e+00
8.364551820295034190e-01 2.248453387551279103e+00
8.433031176776797366e-01 2.172145152119767886e+00
8.495468237098405817e-01 2.101063289546803770e+00
8.563947593580170103e-01 2.028605611135288367e+00
8.654582061922017067e-01 1.956266810790755484e+00
8.741188306884248860e-01 1.888208545943539818e+00
8.818731107606246900e-01 1.814639794523999594e+00
8.915407846168736938e-01 1.746888675011732284e+00
9.027190325131617676e-01 1.679983489024158949e+00
9.120845862005754201e-01 1.615702185567504667e+00
9.182275908129796660e-01 1.557707026796691485e+00
9.246727030279738857e-01 1.507183086672690964e+00
9.316213475895458451e-01 1.453266689427052283e+00
9.405840920240371439e-01 1.402011406558200779e+00
9.467270896039535755e-01 1.351371093482065522e+00
9.525679792354199149e-01 1.302925525515237215e+00
9.590130914504141346e-01 1.261028502675274110e+00
9.642497511200046612e-01 1.223210511128327571e+00
9.685800608894539199e-01 1.186625470153204631e+00
9.722054365103881546e-01 1.155960718674017285e+00
9.755287051051745317e-01 1.128027463818050080e+00
9.794561953611866656e-01 1.101829786722735127e+00
9.834843904955580252e-01 1.080422553236215943e+00
9.880161100217259573e-01 1.060770327613114405e+00
9.913393786165123345e-01 1.044279103869816039e+00
9.943605249672909929e-01 1.030949239771565384e+00
9.958710981426801556e-01 1.019995991816153635e+00
9.979859005882252276e-01 1.012839019909132388e+00
9.987915414596885144e-01 1.007773813217536674e+00
9.995971804865628751e-01 1.003698588654064583e+00
9.997985902432814376e-01 1.001969182371646117e+00
1.000000000000000000e+00 1.000786744147543983e+00
1.000000000000000000e+00 1.000245724250054424e+00
1.000000000000000000e+00 1.000098275210860033e+00
1.000000000000000000e+00 9.999999999999997780e-01
1.000000000000000000e+00 9.999999999999997780e-01
1.000000000000000000e+00 9.999999999999997780e-01
1.000000000000000000e+00 9.999999999999997780e-01
