1.007046477867096934e-04 inf
1.007046477867096934e-04 inf
2.014092955734193867e-04 inf
2.014092955734193867e-04 inf
2.014092955734193867e-04 inf
2.014092955734193867e-04 inf
2.014092955734193867e-04 inf
2.014092955734193867e-04 inf
2.014092955734193867e-04 inf
2.014092955734193867e-04 inf
3.021139433601291208e-04 inf
4.028195134434784416e-04 inf
5.035241612301880401e-04 inf
5.035241612301880401e-04 inf
6.042297313135374694e-04 inf
8.056390268869568832e-04 inf
8.056390268869568832e-04 inf
8.056390268869568832e-04 inf
8.056390268869568832e-04 inf
9.063436746736665359e-04 inf
1.007049244757015748e-03 inf
1.510572483690564337e-03 inf
1.611277131477274098e-03 inf
1.711982701560623311e-03 inf
1.812687349347333072e-03 inf
2.618324531641010727e-03 inf
2.920441241891058581e-03 inf
3.524669128611317148e-03 inf
3.927487719758156193e-03 inf
4.229601663118284609e-03 inf
4.733129513535032189e-03 inf
6.142994582548967110e-03 inf
6.948631764842644332e-03 inf
7.754276325509438898e-03 inf
8.660618155589825881e-03 inf
1.017118787239047056e-02 inf
1.097683243305726600e-02 inf
1.248740214985791068e-02 inf
1.359515327551171632e-02 inf
1.470291454642856134e-02 inf
1.641489355880262554e-02 inf
1.752264468445643292e-02 inf
1.943605051604006817e-02 inf
2.165155276734768292e-02 inf
2.437057825758884300e-02 inf
2.749242233897684559e-02 inf
2.960723931072718057e-02 inf
3.252767409654176711e-02 inf
3.534740423456963349e-02 inf
3.806645462682006764e-02 inf
4.128900335599478000e-02 inf
4.420943814180935960e-02 inf
4.712989967422649001e-02 inf
4.984892516446765703e-02 inf
5.347429248478920150e-02 inf
5.760322085820653026e-02 inf
6.273915789532871767e-02 inf
6.777439028466421267e-02 inf
7.311178549908173285e-02 inf
7.774419929727038880e-02 inf
8.288013633439257621e-02 inf
8.831823711889344453e-02 inf
9.345417415601564581e-02 3.046988775926521630e+05
9.798588330641756772e-02 3.046988775926521630e+05
1.050352086514872441e-01 1.523494387963260815e+05
1.095669593052379515e-01 1.523494387963260815e+05
1.139979638078531948e-01 1.523494387963260815e+05
1.197381287316956477e-01 1.523494387963260815e+05
1.250755239461131541e-01 1.523494387963260815e+05
1.320241446433961241e-01 1.523494387963260815e+05
1.390734699884658143e-01 1.523494387963260815e+05
1.454179209037168019e-01 1.523494387963260815e+05
1.519637230098529468e-01 1.015662925308840495e+05
1.600200948327896999e-01 1.015662925308840495e+05
1.675730125890409206e-01 1.015662925308840495e+05
1.736152914562435201e-01 7.617471939816304075e+04
1.811681400402467279e-01 7.617471939816304075e+04
1.876132965255810914e-01 5.078299123458960821e+04
1.960724869396647252e-01 5.078299123458960821e+04
2.020140611590806046e-01 5.078299123458960821e+04
2.086606287845816365e-01 5.078299123458960821e+04
2.162134773685848443e-01 4.352829718439682620e+04
2.244712584870950656e-01 3.808727249416048289e+04
2.306142420020843575e-01 3.808727249416048289e+04
2.359516372165018638e-01 3.385532748972641275e+04
2.435044858005050716e-01 3.385532748972641275e+04
2.519637149508701657e-01 2.769980571333616535e+04
2.594158588870866811e-01 2.769980571333616535e+04
2.667673318391896586e-01 2.176412723613803246e+04
2.763343171878168691e-01 2.031318409158346549e+04
2.848942122496872509e-01 2.031318409158346549e+04
2.926485056375218718e-01 1.692765082585228083e+04
3.016112603325515895e-01 1.450941341166934399e+04
3.103725646899953006e-01 1.269574296408301234e+04
3.178247427510312306e-01 1.218791268741589010e+04
3.255790006306079065e-01 1.218791268741589010e+04
3.322255378201804943e-01 1.171914631946461122e+04
3.425981640402710471e-01 1.128510342151063014e+04
3.501510126242742271e-01 1.050682300768056848e+04
3.580060111210418006e-01 9.828962657758009300e+03
3.661631249446081759e-01 8.235075243275605317e+03
3.750251339498386627e-01 7.431655870553686327e+03
3.839878886448683248e-01 7.085997016250244087e+03
3.917421820327030013e-01 5.974466874906320299e+03
4.011077142768669779e-01 5.253412748144146462e+03
4.097683536450978936e-01 4.291519094416806183e+03
4.194359998326220307e-01 3.856936192224274237e+03
4.288015749633834472e-01 3.462476254723290367e+03
4.365558683512181237e-01 3.046978590445280133e+03
4.435044890485011493e-01 2.672789334465075171e+03
4.527693590703296134e-01 2.325938313046756321e+03
4.628398699636213642e-01 2.017866630264221158e+03
4.705941278431979846e-01 1.711786603067114584e+03
4.788519467756972570e-01 1.570608099924028920e+03
4.887210022587947789e-01 1.366359144540603666e+03
4.985901029342207358e-01 1.233595264216713531e+03
5.077542678471163029e-01 1.128511050315737066e+03
5.151057071355460426e-01 1.019057091286847594e+03
5.241691669395086572e-01 9.289573728945468929e+02
5.352467289221296554e-01 8.393883378243713196e+02
5.454178983485873378e-01 7.713874441253925625e+02
5.554884092418791441e-01 7.069559021176490887e+02
5.653574873210891472e-01 6.295413516454190130e+02
5.742195166167063380e-01 5.560183094076703583e+02
5.829808610938701507e-01 5.003250875888486462e+02
5.927492342947209281e-01 4.575044978934860751e+02
6.024169026172123687e-01 4.191169340662092964e+02
6.127895050882187222e-01 3.734044479006585107e+02
6.216515546743154319e-01 3.381775559019545767e+02
6.308156986050104109e-01 3.031820883387936192e+02
6.389727937521125778e-01 2.735170704738852692e+02
6.462235449939811582e-01 2.433690371597223248e+02
6.551862996890107649e-01 2.207956400762996623e+02
6.637462143495500566e-01 1.986297281926192113e+02
6.719033094966522235e-01 1.802946860222948828e+02
6.789526509818021305e-01 1.654169558244331597e+02
6.848942524088442729e-01 1.521208129781932996e+02
6.911379548671199302e-01 1.393860953485366849e+02
6.969788378119585737e-01 1.257005039875816408e+02
7.036253597836714668e-01 1.151107045717508441e+02
7.113796531715061988e-01 1.037093193533903133e+02
7.186304044133747793e-01 9.477387168458503197e+01
7.239677629664168501e-01 8.563744099455438175e+01
7.295065376169451721e-01 7.844953646283211413e+01
7.341389620214723299e-01 7.216911749379397634e+01
7.395770316783547571e-01 6.665893679563207286e+01
7.451157999881153904e-01 6.090306128800001773e+01
7.510573946132277356e-01 5.617588519628498034e+01
7.558912287744733449e-01 5.173141178933644113e+01
7.605236584821879475e-01 4.723267701317508482e+01
7.660624331327162695e-01 4.319506450632098193e+01
7.713997916857584514e-01 3.945332149596125504e+01
7.766364483578933608e-01 3.581732717155421142e+01
7.828801543900543169e-01 3.254972786556589170e+01
7.884189258701970182e-01 2.951641991951176536e+01
7.950654516463683263e-01 2.674431695642977047e+01
8.019133892544189068e-01 2.430196166421997361e+01
8.068479311185460245e-01 2.187351014828440299e+01
8.139979805515611400e-01 1.952691630533784206e+01
8.192346379730596206e-01 1.730550334916728872e+01
8.246727045171997617e-01 1.552996933220476627e+01
8.302114759973424629e-01 1.393223589592611589e+01
8.364551820295034190e-01 1.247586290480055382e+01
8.433031176776797366e-01 1.117993690207178759e+01
8.495468237098405817e-01 9.961357424417053963e+00
8.563947593580170103e-01 8.850039252286981295e+00
8.654582061922017067e-01 7.823400821124414151e+00
8.741188306884248860e-01 6.862103764885362445e+00
8.818731107606246900e-01 6.022770748738345503e+00
8.915407846168736938e-01 5.304630853296307791e+00
9.027190325131617676e-01 4.677299479882048416e+00
9.120845862005754201e-01 4.158394191309358945e+00
9.182275908129796660e-01 3.743586580771683270e+00
9.246727030279738857e-01 3.370068652064594605e+00
9.316213475895458451e-01 3.033329999642393027e+00
9.405840920240371439e-01 2.723898243313865652e+00
9.467270896039535755e-01 2.450641025904713111e+00
9.525679792354199149e-01 2.219326442369289332e+00
9.590130914504141346e-01 2.020329425993303563e+00
9.642497511200046612e-01 1.846643280712738422e+00
9.685800608894539199e-01 1.701244552453736070e+00
9.722054365103881546e-01 1.580015119305435256e+00
9.755287051051745317e-01 1.473536994579218273e+00
9.794561953611866656e-01 1.378249980487943338e+00
9.834843904955580252e-01 1.294835091325236887e+00
9.880161100217259573e-01 1.223254487356238984e+00
9.913393786165123345e-01 1.163648954740489794e+00
9.943605249672909929e-01 1.115807421248689035e+00
9.958710981426801556e-01 1.078401399861981025e+00
9.979859005882252276e-01 1.050552367716366620e+00
9.987915414596885144e-01 1.030028890631914829e+00
9.995971804865628751e-01 1.016758094237582455e+00
9.997985902432814376e-01 1.008623172663283274e+00
1.000000000000000000e+00 1.003910899241433174e+00
1.000000000000000000e+00 1.001564645974327927e+00
1.000000000000000000e+00 1.000456397371379813e+00
1.000000000000000000e+00 1.000131294715818964e+00
1.000000000000000000e+00 1.000032820469635597e+00
1.000000000000000000e+00 1.000019692005225558e+00
1.000000000000000000e+00 9.999999999999995559e-01
